C:\Users\ACER\Documents\NetBeansProjects\OX_OOP_GAME\src\main\java\NoPlace.java
C:\Users\ACER\Documents\NetBeansProjects\OX_OOP_GAME\src\main\java\Game.java
C:\Users\ACER\Documents\NetBeansProjects\OX_OOP_GAME\src\main\java\WinnerConditions.java
C:\Users\ACER\Documents\NetBeansProjects\OX_OOP_GAME\src\main\java\FullPlace.java
C:\Users\ACER\Documents\NetBeansProjects\OX_OOP_GAME\src\main\java\ChangePlayer.java
C:\Users\ACER\Documents\NetBeansProjects\OX_OOP_GAME\src\main\java\Main.java
C:\Users\ACER\Documents\NetBeansProjects\OX_OOP_GAME\src\main\java\PrintBoard.java
